# Blender 3.1.0 MTL File: 'jeVaisMourir.blend'
# www.blender.org

newmtl Material.031
Ns 250.000000
Ka 1.000000 1.000000 1.000000
Kd 0.800000 0.010907 0.043629
Ks 0.500000 0.500000 0.500000
Ke 0.000000 0.000000 0.000000
Ni 1.450000
d 1.000000
illum 2
